{
  "photos": {
    "page": 1,
    "pages": 3347,
    "perpage": 100,
    "total": "334644",
    "photo": [
      {
        "id": "35781887522",
        "owner": "139406890@N03",
        "secret": "1e9ec4e0e3",
        "server": "4322",
        "farm": 5,
        "title": "Frozen Giantess - Princess Anna's Rampage",
        "ispublic": 1,
        "isfriend": 0,
        "isfamily": 0
      }      
    ]
  },
  "stat": "ok"
}
